<?xml version="1.0" encoding="UTF-8"?>
<testsuite name="api.ReqresNoPojoTest" tests="3" skipped="0" failures="0" errors="0" timestamp="2022-10-23T19:10:05" hostname="DESKTOP-757B6MQ" time="3.527">
  <properties/>
  <testcase name="checkAvatarsNoPojoTest()" classname="api.ReqresNoPojoTest" time="2.906"/>
  <testcase name="unsuccessUserReqNoPojoTest()" classname="api.ReqresNoPojoTest" time="0.365"/>
  <testcase name="successRegNoPojoTest()" classname="api.ReqresNoPojoTest" time="0.253"/>
  <system-out><![CDATA[HTTP/1.1 200 OK
Date: Sun, 23 Oct 2022 19:10:06 GMT
Content-Type: application/json; charset=utf-8
Transfer-Encoding: chunked
Connection: keep-alive
X-Powered-By: Express
Access-Control-Allow-Origin: *
Etag: W/"406-ut0vzoCuidvyMf8arZpMpJ6ZRDw"
Via: 1.1 vegur
Cache-Control: max-age=14400
CF-Cache-Status: HIT
Age: 3494
Report-To: {"endpoints":[{"url":"https:\/\/a.nel.cloudflare.com\/report\/v3?s=q4uFMlZ3el3moFDNdza%2Fums2JQCEuPqF3VafiAuWyT6uqmAmO3034AWJxNjNxzqUHIezB4tN9OVgz2BN7Nv6fokUR41tiYuZtc%2FVIBklAmTZ9hA%2BYTpTmRZBaA%3D%3D"}],"group":"cf-nel","max_age":604800}
NEL: {"success_fraction":0,"report_to":"cf-nel","max_age":604800}
Vary: Accept-Encoding
Server: cloudflare
CF-RAY: 75ecc55c490c16cb-DME
Content-Encoding: gzip

{
    "page": 2,
    "per_page": 6,
    "total": 12,
    "total_pages": 2,
    "data": [
        {
            "id": 7,
            "email": "michael.lawson@reqres.in",
            "first_name": "Michael",
            "last_name": "Lawson",
            "avatar": "https://reqres.in/img/faces/7-image.jpg"
        },
        {
            "id": 8,
            "email": "lindsay.ferguson@reqres.in",
            "first_name": "Lindsay",
            "last_name": "Ferguson",
            "avatar": "https://reqres.in/img/faces/8-image.jpg"
        },
        {
            "id": 9,
            "email": "tobias.funke@reqres.in",
            "first_name": "Tobias",
            "last_name": "Funke",
            "avatar": "https://reqres.in/img/faces/9-image.jpg"
        },
        {
            "id": 10,
            "email": "byron.fields@reqres.in",
            "first_name": "Byron",
            "last_name": "Fields",
            "avatar": "https://reqres.in/img/faces/10-image.jpg"
        },
        {
            "id": 11,
            "email": "george.edwards@reqres.in",
            "first_name": "George",
            "last_name": "Edwards",
            "avatar": "https://reqres.in/img/faces/11-image.jpg"
        },
        {
            "id": 12,
            "email": "rachel.howell@reqres.in",
            "first_name": "Rachel",
            "last_name": "Howell",
            "avatar": "https://reqres.in/img/faces/12-image.jpg"
        }
    ],
    "support": {
        "url": "https://reqres.in/#support-heading",
        "text": "To keep ReqRes free, contributions towards server costs are appreciated!"
    }
}
HTTP/1.1 400 Bad Request
Date: Sun, 23 Oct 2022 19:10:08 GMT
Content-Type: application/json; charset=utf-8
Content-Length: 28
Connection: keep-alive
X-Powered-By: Express
Access-Control-Allow-Origin: *
Etag: W/"1c-NmpazMScs9tOqR7eDEesn+pqC9Q"
Via: 1.1 vegur
CF-Cache-Status: DYNAMIC
Report-To: {"endpoints":[{"url":"https:\/\/a.nel.cloudflare.com\/report\/v3?s=lgpWWTZCESn8lpNw03qZrAp41fPSeXIkAkiVhxO3viVIpYk715OLc%2BtiR0IsAYfwcAuevAh3gOaa6bPik14xie0bmAUpUrLP5t0SXZsnHBdX3EuL2s9nFwIsyw%3D%3D"}],"group":"cf-nel","max_age":604800}
NEL: {"success_fraction":0,"report_to":"cf-nel","max_age":604800}
Server: cloudflare
CF-RAY: 75ecc56458e816fe-DME

{
    "error": "Missing password"
}
HTTP/1.1 200 OK
Date: Sun, 23 Oct 2022 19:10:08 GMT
Content-Type: application/json; charset=utf-8
Content-Length: 36
Connection: keep-alive
X-Powered-By: Express
Access-Control-Allow-Origin: *
Etag: W/"24-4iP0za1geN2he+ohu8F0FhCjLks"
Via: 1.1 vegur
CF-Cache-Status: DYNAMIC
Report-To: {"endpoints":[{"url":"https:\/\/a.nel.cloudflare.com\/report\/v3?s=%2FDmEU%2FXnW39TQtxlmJAgPQAPGhhE%2FZH6firLUQmFfclZU0d0%2BDIkOLbvUa%2BwmrnY72L9f7gunmw4Jg2occBLV129n1JskNJ8IECPT8Gbny0O%2FS0ZGEhzzUPnDA%3D%3D"}],"group":"cf-nel","max_age":604800}
NEL: {"success_fraction":0,"report_to":"cf-nel","max_age":604800}
Server: cloudflare
CF-RAY: 75ecc565c9e29d43-DME

{
    "id": 4,
    "token": "QpwL5tke4Pnpja7X4"
}
]]></system-out>
  <system-err><![CDATA[log4j:WARN No appenders could be found for logger (org.apache.http.impl.conn.BasicClientConnectionManager).
log4j:WARN Please initialize the log4j system properly.
log4j:WARN See http://logging.apache.org/log4j/1.2/faq.html#noconfig for more info.
]]></system-err>
</testsuite>
